   23.466904    0.000000    0.000000
   11.733452   20.322935    0.000000
    0.000000    0.000000   20.000000
         364
13.022843 17.791874 0.000000
14.441172 17.717431 0.000000
15.214806 18.908519 0.000000
16.633136 18.834076 0.000000
17.406770 20.025163 0.000000
18.825099 19.950720 0.000000
10.701940 14.218610 0.000000
12.120269 14.144167 0.000000
12.893903 15.335255 0.000000
14.312233 15.260812 0.000000
15.085867 16.451900 0.000000
16.504196 16.377457 0.000000
17.277831 17.568545 0.000000
18.696160 17.494102 0.000000
19.469794 18.685190 0.000000
20.888124 18.610747 0.000000
21.661758 19.801834 0.000000
23.080087 19.727391 0.000000
8.381037 10.645347 0.000000
9.799367 10.570904 0.000000
10.573001 11.761992 0.000000
11.991330 11.687549 0.000000
12.764964 12.878637 0.000000
14.183294 12.804194 0.000000
14.956928 13.995281 0.000000
16.375257 13.920838 0.000000
17.148892 15.111926 0.000000
18.567221 15.037483 0.000000
19.340855 16.228571 0.000000
20.759185 16.154128 0.000000
21.532819 17.345216 0.000000
22.951148 17.270773 0.000000
23.724782 18.461861 0.000000
25.143112 18.387418 0.000000
25.916746 19.578505 0.000000
27.335075 19.504062 0.000000
6.060135 7.072084 0.000000
7.478464 6.997641 0.000000
8.252098 8.188729 0.000000
9.670428 8.114286 0.000000
10.444062 9.305373 0.000000
11.862391 9.230930 0.000000
12.636025 10.422018 0.000000
14.054355 10.347575 0.000000
14.827989 11.538663 0.000000
16.246318 11.464220 0.000000
17.019953 12.655308 0.000000
18.438282 12.580865 0.000000
19.211916 13.771953 0.000000
20.630246 13.697510 0.000000
21.403880 14.888597 0.000000
22.822209 14.814154 0.000000
23.595843 16.005242 0.000000
25.014173 15.930799 0.000000
25.787807 17.121887 0.000000
27.206136 17.047444 0.000000
27.979771 18.238532 0.000000
29.398100 18.164089 0.000000
30.171734 19.355176 0.000000
31.590064 19.280734 0.000000
3.739232 3.498820 0.000000
5.157561 3.424377 0.000000
5.931196 4.615465 0.000000
7.349525 4.541022 0.000000
8.123159 5.732110 0.000000
9.541489 5.657667 0.000000
10.315123 6.848755 0.000000
11.733452 6.774312 0.000000
12.507086 7.965400 0.000000
13.925416 7.890957 0.000000
14.699050 9.082044 0.000000
16.117379 9.007601 0.000000
16.891014 10.198689 0.000000
18.309343 10.124246 0.000000
19.082977 11.315334 0.000000
20.501307 11.240891 0.000000
21.274941 12.431979 0.000000
22.693270 12.357536 0.000000
23.466904 13.548624 0.000000
24.885234 13.474181 0.000000
25.658868 14.665268 0.000000
27.077197 14.590825 0.000000
27.850832 15.781913 0.000000
29.269161 15.707470 0.000000
30.042795 16.898558 0.000000
31.461125 16.824115 0.000000
32.234759 18.015203 0.000000
33.653088 17.940760 0.000000
34.426722 19.131848 0.000000
35.845052 19.057405 0.000000
1.418329 -0.074443 0.000000
2.836659 -0.148886 0.000000
3.610293 1.042202 0.000000
5.028622 0.967759 0.000000
5.802257 2.158847 0.000000
7.220586 2.084404 0.000000
7.994220 3.275491 0.000000
9.412550 3.201048 0.000000
10.186184 4.392136 0.000000
11.604513 4.317693 0.000000
12.378147 5.508781 0.000000
13.796477 5.434338 0.000000
14.570111 6.625426 0.000000
15.988440 6.550983 0.000000
16.762075 7.742071 0.000000
18.180404 7.667628 0.000000
18.954038 8.858715 0.000000
20.372368 8.784272 0.000000
21.146002 9.975360 0.000000
22.564331 9.900917 0.000000
23.337965 11.092005 0.000000
24.756295 11.017562 0.000000
25.529929 12.208650 0.000000
26.948258 12.134207 0.000000
27.721893 13.325295 0.000000
29.140222 13.250852 0.000000
29.913856 14.441939 0.000000
31.332185 14.367496 0.000000
32.105820 15.558584 0.000000
33.524149 15.484141 0.000000
34.297783 16.675229 0.000000
35.716113 16.600786 0.000000
7.865281 0.818873 0.000000
9.283611 0.744430 0.000000
10.057245 1.935518 0.000000
11.475574 1.861075 0.000000
12.249208 3.052162 0.000000
13.667538 2.977719 0.000000
14.441172 4.168807 0.000000
15.859501 4.094364 0.000000
16.633136 5.285452 0.000000
18.051465 5.211009 0.000000
18.825099 6.402097 0.000000
20.243428 6.327654 0.000000
21.017063 7.518742 0.000000
22.435392 7.444299 0.000000
23.209026 8.635386 0.000000
24.627356 8.560943 0.000000
25.400990 9.752031 0.000000
26.819319 9.677588 0.000000
27.592953 10.868676 0.000000
29.011283 10.794233 0.000000
29.784917 11.985321 0.000000
31.203246 11.910878 0.000000
31.976881 13.101966 0.000000
33.395210 13.027523 0.000000
12.120269 0.595544 0.000000
13.538599 0.521101 0.000000
14.312233 1.712189 0.000000
15.730562 1.637746 0.000000
16.504196 2.828833 0.000000
17.922526 2.754391 0.000000
18.696160 3.945478 0.000000
20.114489 3.871035 0.000000
20.888124 5.062123 0.000000
22.306453 4.987680 0.000000
23.080087 6.178768 0.000000
24.498417 6.104325 0.000000
25.272051 7.295413 0.000000
26.690380 7.220970 0.000000
27.464014 8.412057 0.000000
28.882344 8.337614 0.000000
29.655978 9.528702 0.000000
31.074307 9.454259 0.000000
16.375257 0.372215 0.000000
17.793587 0.297772 0.000000
18.567221 1.488860 0.000000
19.985550 1.414417 0.000000
20.759185 2.605505 0.000000
22.177514 2.531062 0.000000
22.951148 3.722149 0.000000
24.369478 3.647706 0.000000
25.143112 4.838794 0.000000
26.561441 4.764351 0.000000
27.335075 5.955439 0.000000
28.753405 5.880996 0.000000
20.630246 0.148886 0.000000
22.048575 0.074443 0.000000
22.822209 1.265531 0.000000
24.240539 1.191088 0.000000
25.014173 2.382176 0.000000
26.432502 2.307733 0.000000
11.217696 16.600786 3.350000
12.636025 16.675229 3.350000
13.280721 17.940760 3.350000
14.699050 18.015203 3.350000
15.343745 19.280734 3.350000
16.762075 19.355176 3.350000
9.283611 12.804194 3.350000
10.701940 12.878637 3.350000
11.346635 14.144167 3.350000
12.764964 14.218610 3.350000
13.409660 15.484141 3.350000
14.827989 15.558584 3.350000
15.472684 16.824115 3.350000
16.891014 16.898558 3.350000
17.535709 18.164089 3.350000
18.954038 18.238532 3.350000
19.598733 19.504062 3.350000
21.017063 19.578505 3.350000
7.349525 9.007601 3.350000
8.767854 9.082044 3.350000
9.412550 10.347575 3.350000
10.830879 10.422018 3.350000
11.475574 11.687549 3.350000
12.893903 11.761992 3.350000
13.538599 13.027523 3.350000
14.956928 13.101966 3.350000
15.601623 14.367496 3.350000
17.019953 14.441939 3.350000
17.664648 15.707470 3.350000
19.082977 15.781913 3.350000
19.727672 17.047444 3.350000
21.146002 17.121887 3.350000
21.790697 18.387418 3.350000
23.209026 18.461861 3.350000
23.853721 19.727391 3.350000
25.272051 19.801834 3.350000
5.415439 5.211009 3.350000
6.833769 5.285452 3.350000
7.478464 6.550983 3.350000
8.896793 6.625426 3.350000
9.541489 7.890957 3.350000
10.959818 7.965400 3.350000
11.604513 9.230930 3.350000
13.022843 9.305373 3.350000
13.667538 10.570904 3.350000
15.085867 10.645347 3.350000
15.730562 11.910878 3.350000
17.148892 11.985321 3.350000
17.793587 13.250852 3.350000
19.211916 13.325295 3.350000
19.856611 14.590825 3.350000
21.274941 14.665268 3.350000
21.919636 15.930799 3.350000
23.337965 16.005242 3.350000
23.982660 17.270773 3.350000
25.400990 17.345216 3.350000
26.045685 18.610747 3.350000
27.464014 18.685190 3.350000
28.108710 19.950720 3.350000
29.527039 20.025163 3.350000
1.418329 0.074443 3.350000
2.836659 0.148886 3.350000
3.481354 1.414417 3.350000
4.899683 1.488860 3.350000
5.544379 2.754391 3.350000
6.962708 2.828833 3.350000
7.607403 4.094364 3.350000
9.025732 4.168807 3.350000
9.670428 5.434338 3.350000
11.088757 5.508781 3.350000
11.733452 6.774312 3.350000
13.151782 6.848755 3.350000
13.796477 8.114286 3.350000
15.214806 8.188729 3.350000
15.859501 9.454259 3.350000
17.277831 9.528702 3.350000
17.922526 10.794233 3.350000
19.340855 10.868676 3.350000
19.985550 12.134207 3.350000
21.403880 12.208650 3.350000
22.048575 13.474181 3.350000
23.466904 13.548624 3.350000
24.111600 14.814154 3.350000
25.529929 14.888597 3.350000
26.174624 16.154128 3.350000
27.592953 16.228571 3.350000
28.237649 17.494102 3.350000
29.655978 17.568545 3.350000
30.300673 18.834076 3.350000
31.719003 18.908519 3.350000
32.363698 20.174049 3.350000
33.782027 20.248492 3.350000
5.673318 0.297772 3.350000
7.091647 0.372215 3.350000
7.736342 1.637746 3.350000
9.154671 1.712189 3.350000
9.799367 2.977719 3.350000
11.217696 3.052162 3.350000
11.862391 4.317693 3.350000
13.280721 4.392136 3.350000
13.925416 5.657667 3.350000
15.343745 5.732110 3.350000
15.988440 6.997641 3.350000
17.406770 7.072084 3.350000
18.051465 8.337614 3.350000
19.469794 8.412057 3.350000
20.114489 9.677588 3.350000
21.532819 9.752031 3.350000
22.177514 11.017562 3.350000
23.595843 11.092005 3.350000
24.240539 12.357536 3.350000
25.658868 12.431979 3.350000
26.303563 13.697510 3.350000
27.721893 13.771953 3.350000
28.366588 15.037483 3.350000
29.784917 15.111926 3.350000
30.429612 16.377457 3.350000
31.847942 16.451900 3.350000
32.492637 17.717431 3.350000
33.910966 17.791874 3.350000
34.555661 19.057405 3.350000
35.973991 19.131848 3.350000
9.928306 0.521101 3.350000
11.346635 0.595544 3.350000
11.991330 1.861075 3.350000
13.409660 1.935518 3.350000
14.054355 3.201048 3.350000
15.472684 3.275491 3.350000
16.117379 4.541022 3.350000
17.535709 4.615465 3.350000
18.180404 5.880996 3.350000
19.598733 5.955439 3.350000
20.243428 7.220970 3.350000
21.661758 7.295413 3.350000
22.306453 8.560943 3.350000
23.724782 8.635386 3.350000
24.369478 9.900917 3.350000
25.787807 9.975360 3.350000
26.432502 11.240891 3.350000
27.850832 11.315334 3.350000
28.495527 12.580865 3.350000
29.913856 12.655308 3.350000
30.558551 13.920838 3.350000
31.976881 13.995281 3.350000
32.621576 15.260812 3.350000
34.039905 15.335255 3.350000
14.183294 0.744430 3.350000
15.601623 0.818873 3.350000
16.246318 2.084404 3.350000
17.664648 2.158847 3.350000
18.309343 3.424377 3.350000
19.727672 3.498820 3.350000
20.372368 4.764351 3.350000
21.790697 4.838794 3.350000
22.435392 6.104325 3.350000
23.853721 6.178768 3.350000
24.498417 7.444299 3.350000
25.916746 7.518742 3.350000
26.561441 8.784272 3.350000
27.979771 8.858715 3.350000
28.624466 10.124246 3.350000
30.042795 10.198689 3.350000
30.687490 11.464220 3.350000
32.105820 11.538663 3.350000
18.438282 0.967759 3.350000
19.856611 1.042202 3.350000
20.501307 2.307733 3.350000
21.919636 2.382176 3.350000
22.564331 3.647706 3.350000
23.982660 3.722149 3.350000
24.627356 4.987680 3.350000
26.045685 5.062123 3.350000
26.690380 6.327654 3.350000
28.108710 6.402097 3.350000
28.753405 7.667628 3.350000
30.171734 7.742071 3.350000
22.693270 1.191088 3.350000
24.111600 1.265531 3.350000
24.756295 2.531062 3.350000
26.174624 2.605505 3.350000
26.819319 3.871035 3.350000
28.237649 3.945478 3.350000
