\relax 
\providecommand\hyper@newdestlabel[2]{}
\providecommand\HyperFirstAtBeginDocument{\AtBeginDocument}
\HyperFirstAtBeginDocument{\ifx\hyper@anchor\@undefined
\global\let\oldcontentsline\contentsline
\gdef\contentsline#1#2#3#4{\oldcontentsline{#1}{#2}{#3}}
\global\let\oldnewlabel\newlabel
\gdef\newlabel#1#2{\newlabelxx{#1}#2}
\gdef\newlabelxx#1#2#3#4#5#6{\oldnewlabel{#1}{{#2}{#3}}}
\AtEndDocument{\ifx\hyper@anchor\@undefined
\let\contentsline\oldcontentsline
\let\newlabel\oldnewlabel
\fi}
\fi}
\global\let\hyper@last\relax 
\gdef\HyperFirstAtBeginDocument#1{#1}
\providecommand\HyField@AuxAddToFields[1]{}
\providecommand\HyField@AuxAddToCoFields[2]{}
\newlabel{FirstPage}{{}{1}{}{section*.1}{}}
\@writefile{toc}{\contentsline {title}{Electron-phonon interaction in twisted bilayer graphene}{1}{section*.2}}
\@writefile{toc}{\contentsline {abstract}{Abstract}{1}{section*.1}}
\@writefile{toc}{\contentsline {section}{\numberline {}Introduction}{2}{section*.3}}
\@writefile{toc}{\contentsline {section}{\numberline {}Indices}{2}{section*.4}}
\@writefile{toc}{\contentsline {section}{\numberline {}Electron-phonon interaction}{2}{section*.5}}
\@writefile{toc}{\contentsline {section}{\numberline {}Electron-phonon matrix elements in tight-binding model}{3}{section*.6}}
\@writefile{toc}{\contentsline {section}{\numberline {}Structural Relaxation}{4}{section*.7}}
\citation{Lindsay:2011}
\@writefile{toc}{\contentsline {section}{\numberline {}Eliashberg Theory}{5}{section*.8}}
\bibcite{Cao:2018a}{{1}{}{{}}{{}}}
\bibcite{Cao:2018b}{{2}{}{{}}{{}}}
\bibcite{Fang:2016}{{3}{}{{}}{{}}}
\bibcite{Nam:2017}{{4}{}{{}}{{}}}
\bibcite{Gunst:2016}{{5}{}{{}}{{}}}
\bibcite{Giustino:2007}{{6}{}{{}}{{}}}
\bibcite{Wirtz:2004}{{7}{}{{}}{{}}}
\bibcite{Lindsay:2011}{{8}{}{{}}{{}}}
\bibdata{manuscriptNotes}
\bibstyle{apsrev4-1}
\providecommand\NAT@force@numbers{}\NAT@force@numbers
\@writefile{toc}{\contentsline {section}{\numberline {}Acknowledgements}{7}{section*.9}}
\@writefile{toc}{\contentsline {section}{\numberline {}Acknowledgments}{7}{section*.10}}
\@writefile{toc}{\contentsline {section}{\numberline {}References}{7}{section*.11}}
\newlabel{LastBibItem}{{8}{7}{}{section*.11}{}}
\newlabel{LastPage}{{}{7}{}{}{}}
